<?xml version="1.0" encoding="utf-8"?>
<!-- Generator: Adobe Illustrator 23.0.2, SVG Export Plug-In . SVG Version: 6.00 Build 0)  -->
<svg version="1.1" id="Capa_1" xmlns="http://www.w3.org/2000/svg" xmlns:xlink="http://www.w3.org/1999/xlink" x="0px" y="0px"
	 viewBox="0 0 152.47 294.84" style="enable-background:new 0 0 152.47 294.84;" xml:space="preserve">
<path d="M149.75,214.85c-2.34-2.34-6.14-2.34-8.48,0l-59.51,59.51V6c0-3.31-2.69-6-6-6s-6,2.69-6,6v268.36l-59.51-59.51
	c-2.34-2.34-6.14-2.34-8.49,0c-2.34,2.34-2.34,6.14,0,8.49l69.75,69.75c1.17,1.17,2.71,1.76,4.24,1.76s3.07-0.59,4.24-1.76
	l69.75-69.75C152.1,220.99,152.1,217.19,149.75,214.85z"/>
</svg>
