<?xml version="1.0" encoding="utf-8"?>
<!-- Generator: Adobe Illustrator 23.0.2, SVG Export Plug-In . SVG Version: 6.00 Build 0)  -->
<svg version="1.1" id="Capa_1" xmlns="http://www.w3.org/2000/svg" xmlns:xlink="http://www.w3.org/1999/xlink" x="0px" y="0px"
	 viewBox="0 0 200.72 430.11" style="enable-background:new 0 0 200.72 430.11;" xml:space="preserve">
<path d="M134.7,0c12.54,0,41.01,0,66.02,0c0,31.46,0,65.53,0,75.39c-18.74,0-38.97,0-48.56,0c-9.6,0-19.32,9.95-19.32,17.35
	c0,7.38,0,49.51,0,49.51s60,0,67.78,0c-2.71,37.96-8.32,72.68-8.32,72.68h-59.8v215.18H43.38V214.93H0v-72.41h43.38
	c0,0,0-48.38,0-59.22C43.38,72.48,41.18,0,134.7,0z"/>
</svg>
