<?xml version="1.0" encoding="utf-8"?>
<!-- Generator: Adobe Illustrator 23.0.2, SVG Export Plug-In . SVG Version: 6.00 Build 0)  -->
<svg version="1.1" id="Layer_1" xmlns="http://www.w3.org/2000/svg" xmlns:xlink="http://www.w3.org/1999/xlink" x="0px" y="0px"
	 viewBox="0 0 167.42 189.44" style="enable-background:new 0 0 167.42 189.44;" xml:space="preserve">
<style type="text/css">
	.st0{fill:#F180AA;}
</style>
<path class="st0" d="M21.7,188.87C-19.89,178.56,7.13,42.27,29.69,44.48c22.56,2.2,24.14,82.44,40.41,120.02
	C74.69,123.69,50.28,71,85.91,80.34c31.11,8.16,11.73,105.58-10.2,107.62C53.78,190,45.08,126.44,35.61,70.51
	C32.06,106.61,56.32,197.45,21.7,188.87z M90,55.35C65.51,56.37,61.43,25.26,50.21,42.6C38.09,61.32,90.5,73.2,106.83,65.3
	c23.97,106.85-18.36,102.77,6.12,110.94c24.49,8.16,47.94-19.38,2.04-110.69c0-0.5,67.12-10.53,49.48-38.25
	C143.04-6.37,116.31,54.25,90,55.35z M41.09,35.15C24.88,19.19,29.83-7.91,12.4,2.2C-3.59,11.49,30.2,33.32,41.09,35.15z"/>
</svg>
