<?xml version="1.0" encoding="utf-8"?>
<!-- Generator: Adobe Illustrator 23.0.2, SVG Export Plug-In . SVG Version: 6.00 Build 0)  -->
<svg version="1.1" id="Capa_1" xmlns="http://www.w3.org/2000/svg" xmlns:xlink="http://www.w3.org/1999/xlink" x="0px" y="0px"
	 viewBox="0 0 550.79 432.77" style="enable-background:new 0 0 550.79 432.77;" xml:space="preserve">
<path d="M49.18,432.77c-12.38,0-23.12-4.09-32.23-12.16l156.08-156.1c3.9,2.8,7.51,5.42,10.77,7.81
	c11.68,8.61,21.16,15.32,28.43,20.13c7.27,4.82,16.95,9.74,29.04,14.76c12.09,5.03,23.36,7.53,33.81,7.53h0.31h0.31
	c10.45,0,21.72-2.5,33.81-7.53c12.09-5.02,21.77-9.93,29.05-14.76c7.28-4.81,16.76-11.52,28.43-20.13c3.43-2.48,7.06-5.09,10.8-7.77
	l156.05,156.06c-9.12,8.07-19.85,12.16-32.23,12.16H49.18z M31.05,166.29C19.37,158.5,9.02,149.59,0,139.54v237.43l137.54-137.54
	C110.03,220.22,74.57,195.86,31.05,166.29z M520.06,166.29c-41.86,28.34-77.45,52.73-106.75,73.19L550.8,376.97V139.54
	C541.98,149.38,531.74,158.29,520.06,166.29z M501.61,0H49.18C33.4,0,21.26,5.33,12.76,15.98C4.25,26.63,0.01,39.96,0.01,55.94
	c0,12.91,5.64,26.89,16.9,41.96c11.27,15.06,23.26,26.89,35.96,35.5c6.97,4.92,27.97,19.52,63.01,43.8
	c18.92,13.11,35.37,24.54,49.51,34.39c12.05,8.4,22.44,15.67,31.02,21.7c0.99,0.69,2.53,1.8,4.59,3.27
	c2.21,1.59,5.02,3.61,8.48,6.11c6.66,4.82,12.19,8.71,16.6,11.68c4.4,2.98,9.73,6.3,15.99,9.99c6.25,3.68,12.14,6.46,17.67,8.3
	c5.53,1.84,10.65,2.77,15.37,2.77h0.31h0.31c4.71,0,9.83-0.92,15.37-2.77c5.53-1.84,11.42-4.61,17.67-8.3
	c6.25-3.69,11.57-7.02,15.99-9.99c4.41-2.97,9.94-6.87,16.6-11.68c3.45-2.5,6.25-4.52,8.47-6.1c2.06-1.48,3.61-2.58,4.6-3.27
	c6.68-4.65,17.1-11.89,31.1-21.62c25.48-17.71,63.01-43.76,112.74-78.28c14.96-10.45,27.45-23.05,37.5-37.8
	c10.03-14.75,15.05-30.22,15.05-46.41c0-13.53-4.87-25.1-14.6-34.74C526.46,4.82,514.93,0,501.61,0z"/>
</svg>
