<?xml version="1.0" encoding="utf-8"?>
<!-- Generator: Adobe Illustrator 23.0.2, SVG Export Plug-In . SVG Version: 6.00 Build 0)  -->
<svg version="1.1" id="Capa_1" xmlns="http://www.w3.org/2000/svg" xmlns:xlink="http://www.w3.org/1999/xlink" x="0px" y="0px"
	 viewBox="0 0 459 306" style="enable-background:new 0 0 459 306;" xml:space="preserve">
<path d="M25.5,306h408c14.08,0,25.5-11.42,25.5-25.5v0c0-14.08-11.42-25.5-25.5-25.5h-408C11.42,255,0,266.42,0,280.5v0
	C0,294.58,11.42,306,25.5,306z M25.5,178.5h408c14.08,0,25.5-11.42,25.5-25.5v0c0-14.08-11.42-25.5-25.5-25.5h-408
	C11.42,127.5,0,138.92,0,153v0C0,167.08,11.42,178.5,25.5,178.5z M0,25.5L0,25.5C0,39.58,11.42,51,25.5,51h408
	c14.08,0,25.5-11.42,25.5-25.5v0C459,11.42,447.58,0,433.5,0h-408C11.42,0,0,11.42,0,25.5z"/>
</svg>
