<?xml version="1.0" encoding="utf-8"?>
<!-- Generator: Adobe Illustrator 23.0.2, SVG Export Plug-In . SVG Version: 6.00 Build 0)  -->
<svg version="1.1" id="Capa_1" xmlns="http://www.w3.org/2000/svg" xmlns:xlink="http://www.w3.org/1999/xlink" x="0px" y="0px"
	 viewBox="0 0 223.06 349.54" style="enable-background:new 0 0 223.06 349.54;" xml:space="preserve">
<path d="M220.93,89.85c-1.41-7.14-3.53-14.12-6.32-20.84c-2.8-6.75-6.25-13.21-10.32-19.28c-8.18-12.25-18.68-22.76-30.92-30.96
	c-12.1-8.13-25.7-13.79-40-16.64c-14.42-2.84-29.26-2.84-43.68,0c-14.3,2.85-27.9,8.51-40,16.64
	c-12.23,8.18-22.74,18.69-30.92,30.92c-8.13,12.1-13.79,25.7-16.64,40c-2.84,14.42-2.84,29.26,0,43.68c2.85,14.3,8.51,27.9,16.64,40
	c10.82,16.17,25.65,29.25,43.04,37.96c10.55,5.4,21.89,9.07,33.6,10.88c2.34,0.21,4.1,2.22,4,4.56v31.6c0,2.43-1.97,4.4-4.4,4.4
	H48.37c-3.15,0.01-6.17,1.26-8.4,3.48c-4.48,4.55-4.63,11.8-0.32,16.52l0.24,0.2c1.15,1.11,2.51,1.98,4,2.56
	c1.43,0.6,2.97,0.91,4.52,0.92h46.72c1.17-0.01,2.29,0.46,3.12,1.28c0.76,0.83,1.18,1.92,1.16,3.04v46.76
	c-0.01,1.56,0.29,3.11,0.88,4.56c0.57,1.49,1.44,2.86,2.56,4c1.15,1.12,2.51,1.99,4,2.56c2.91,1.19,6.17,1.19,9.08,0
	c1.49-0.57,2.85-1.44,4-2.56c1.12-1.14,1.99-2.51,2.56-4c0.59-1.45,0.89-3,0.88-4.56v-46.76c-0.01-1.17,0.46-2.29,1.28-3.12
	c0.83-0.82,1.95-1.29,3.12-1.28h46.68c1.56,0.01,3.11-0.29,4.56-0.88c1.49-0.57,2.85-1.44,4-2.56c1.12-1.14,1.99-2.51,2.56-4
	c1.19-2.91,1.19-6.17,0-9.08c-0.31-0.76-0.7-1.48-1.16-2.16l-1.56-1.56c-2.24-2.22-5.25-3.47-8.4-3.48h-46.76
	c-1.17,0.01-2.29-0.46-3.12-1.28c-0.82-0.83-1.29-1.95-1.28-3.12v-29.44v-2.04c0-1.06,0.38-2.08,1.08-2.88
	c0.69-0.79,1.64-1.3,2.68-1.44c11.87-1.68,23.4-5.27,34.12-10.64c24.15-12.07,43.13-32.45,53.44-57.4
	c2.79-6.73,4.91-13.73,6.32-20.88C223.77,119.11,223.77,104.27,220.93,89.85z M197.61,128.85v0.16
	c-9.8,47.81-56.5,78.61-104.31,68.81s-78.61-56.5-68.81-104.31S80.99,14.9,128.8,24.7c41.28,8.46,70.83,44.9,70.61,87.03
	C199.37,117.48,198.77,123.21,197.61,128.85z"/>
</svg>
